%p% \usetikzlibrary{shapes}
\begin{tikzpicture}[scale=0.7, portal/.style={fill=black, circle, text=white, minimum size=4mm, inner sep=0pt}, start/.style={fill=green!30, rectangle, minimum size=4mm, inner sep=0pt}, fleche/.style={->, black!40!green, very thick}, end/.style={start}, font=\bf, diagonaliseur/.style={cloud, draw=black, fill=orange!30, minimum size=6mm, inner sep=0pt}]
  \scriptsize
  % Room 1
  \begin{scope}
    \draw (0,0) grid (4,4);
    \node at (2, 5) {\color{red}room1};
    \foreach \i in {1,2,3,4} {
      \node at (-0.3, 4.5cm - \i cm) {\color{blue}$\i$};
      \node at (\i cm - 0.5cm, 4.3)  {\color{blue}$\i$};
    }
    \draw[fleche] (1.5, 1.5) -- ++ (1,1);
    \draw[fleche] (2.5, 2.5) -- ++ (0.8,0.8);
    \node[diagonaliseur] (diag) at (1.5, 1.5) {D};
    \node[start] (start) at (0.5, 0.5) {S};
    \draw[fleche] (start)          -- ++ (1,0);
    \draw[fleche] (start) ++ (1,0) -- ++ (0,0.7);
    \node[portal]        at (0.5, 2.5) {1};
    \node[portal]        at (3.5, 3.5) {2};
  \end{scope}
  % Room 2
  \begin{scope}[xshift=6cm, yshift=-1cm]
    \draw ( 0, 2) rectangle (5, 3);
    \draw ( 1, 1) rectangle (4, 4);
    \draw ( 2, 0) rectangle (3, 5);
    \node at (2.5, 6) {\color{red}room2};
    \foreach \i in {1,2,3,4,5} {
      \node at (-0.3, 5.5cm - \i cm) {\color{blue}$\i$};
      \node at (\i cm - 0.5cm, 5.3)  {\color{blue}$\i$};
    }
    \node[portal] at (2.5, 4.5) {1};
    \node[portal] at (3.5, 1.5) {3};
  \end{scope}
  % Room 3
  \begin{scope}[xshift=13cm]
    \draw ( 0, 3) rectangle (7, 4);
    \draw ( 1, 2) rectangle (6, 4);
    \draw ( 2, 1) rectangle (5, 4);
    \draw ( 3, 0) rectangle (4, 4);
    \node at (3.5, 5) {\color{red}room3};
    \foreach \i in {1,2,3,4} {
      \node at (-0.3, 4.5cm - \i cm) {\color{blue}$\i$};
    }
    \foreach \i in {1,2,3,4,5,6,7} {
      \node at (\i cm - 0.5cm, 4.3)  {\color{blue}$\i$};
    }
    \node[end]    at (3.5, 1.5) {E};
    \draw[fleche] (6.5, 3.5) -- ++ (-1,-1);
    \draw[fleche] (5.5, 2.5) -- ++ (-1,0);
    \draw[fleche] (4.5, 2.5) -- ++ (-0.8,-0.8);
    \node[portal] at (6.5, 3.5) {2};
    \node[portal] at (3.5, 0.5) {3};
  \end{scope}
\end{tikzpicture}
